^C:\USERS\SAKET\ONEDRIVE\DESKTOP\SAKET\CPP-WORK\MYSTL\MYSTL\MAIN.CPP|C:\USERS\SAKET\ONEDRIVE\DESKTOP\SAKET\CPP-WORK\MYSTL\MYSTL\MYLIST.HPP
C:\USERS\SAKET\ONEDRIVE\DESKTOP\SAKET\CPP-WORK\MYSTL\MYSTL\DEBUG\VC142.PDB
C:\USERS\SAKET\ONEDRIVE\DESKTOP\SAKET\CPP-WORK\MYSTL\MYSTL\DEBUG\VC142.IDB
C:\USERS\SAKET\ONEDRIVE\DESKTOP\SAKET\CPP-WORK\MYSTL\MYSTL\DEBUG\MYLIST.OBJ
C:\USERS\SAKET\ONEDRIVE\DESKTOP\SAKET\CPP-WORK\MYSTL\MYSTL\DEBUG\MAIN.OBJ
^C:\USERS\SAKET\ONEDRIVE\DESKTOP\SAKET\CPP-WORK\MYSTL\MYSTL\MAIN.CPP
C:\USERS\SAKET\ONEDRIVE\DESKTOP\SAKET\CPP-WORK\MYSTL\MYSTL\DEBUG\VC142.PDB
^C:\USERS\SAKET\ONEDRIVE\DESKTOP\SAKET\CPP-WORK\MYSTL\MYSTL\MYLIST.HPP
C:\USERS\SAKET\ONEDRIVE\DESKTOP\SAKET\CPP-WORK\MYSTL\MYSTL\DEBUG\VC142.PDB
